"","patient.id","storage.number","array","grade","stage","age.at.diagnosis","menopause.status.at.diag","vital.status","months.to.entry","months.to.status","morphology.group"
"1","ID1788","ID1788.13","OV01",1,1,64,2,2,27,53.3,"Endometrioid"
"2","ID1904","ID1904.04","OV01",8,1,57,2,1,36.3,213.4,"Clear cell"
"3","ID0272","ID0272.01","OV01",3,4,67,2,2,22,24.3,"HGSC"
"4","ID0493","ID0493.02","OV01",1,1,50,1,1,35.2,211.4,"Endometrioid"
"5","ID1384","ID1384.07","OV01",3,3,47,2,2,35.9,47.4,"HGSC"
"6","ID1791","ID1791.08","OV01",3,3,66,2,2,20.7,103.9,"HGSC"
"7","ID0090","ID0090.04","OV01",1,1,35,888,1,75.6,248.6,"Mixed"
"8","ID0680","ID0680.06","OV01",2,1,71,2,2,28.7,179,"Clear cell"
"9","ID1009","ID1009.06","OV01",7,1,46,1,1,26.7,200.5,"LGSC"
"10","ID0126","ID0126.06","OV01",3,1,70,2,2,16.7,70.2,"HGSC"
"11","ID1805","ID1805.08","OV01",3,2,50,1,2,23.2,66.2,"HGSC"
"12","ID1265","ID1265.05","OV01",1,1,33,1,1,37.1,212.8,"Endometrioid"
"13","ID1677","ID1677.07","OV01",2,1,25,1,1,75.9,248.4,"Mucinous"
"14","ID1379","ID1379.04","OV01",3,4,48,1,2,25.5,54.1,"HGSC"
"15","ID1419","ID1419.01","OV01",3,2,67,2,2,21.7,121.1,"HGSC"
"16","ID1600","ID1600.04","OV01",1,3,60,2,2,24.6,86.6,"HGSC"
"17","ID1869","ID1869.07","OV01",7,2,48,1,2,21.7,30.7,"LGSC"
"18","ID1353","ID1353.01","OV01",1,3,61,2,1,42.2,219.7,"LGSC"
"19","ID0726","ID0726.01","OV01",3,3,61,2,2,22.9,27.3,"HGSC"
"20","ID0424","ID0424.06","OV01",8,1,61,2,1,22.1,200.4,"Clear cell"
"21","ID0157","ID0157.07","OV01",8,1,70,2,2,36,198.9,"Clear cell"
"22","ID0968","ID0968.03","OV01",1,1,41,2,1,29.2,203.8,"Endometrioid"
"23","ID0761","ID0761.07","OV01",3,1,70,2,2,42.1,117,"HGSC"
"24","ID0327","ID0327.10","OV01",2,1,31,1,1,47.6,224.2,"Mucinous"
"25","ID1861","ID1861.08","OV01",2,2,62,2,1,82.2,244.5,"Clear cell"
"26","ID0751","ID0751.02","OV01",3,3,55,888,2,80.4,201.6,"HGSC"
"27","ID0700","ID0700.07","OV01",1,1,66,2,1,83.1,240.6,"Endometrioid"
"28","ID0480","ID0480.02","OV01",3,3,54,1,2,76.7,98.5,"HGSC"
"29","ID1169","ID1169.02","OV01",2,1,59,2,2,66.6,148.7,"Mucinous"
"30","ID0434","ID0434.09","OV01",8,88,55,2,2,70.9,71.8,"Non-epi"
"31","ID1131","ID1131.04","OV01",7,1,60,2,2,58.2,160.7,"LGSC"
"32","ID1449","ID1449.05","OV01",3,1,52,2,1,57.7,234.2,"Clear cell"
"33","ID0566","ID0566.07","OV01",3,1,45,888,1,42.5,216.6,"HGSC"
"34","ID0796","ID0796.01","OV01",1,1,38,1,1,40.7,215.7,"Endometrioid"
"35","ID1750","ID1750.01","OV01",8,1,54,2,1,60.2,235.3,"Clear cell"
"36","ID0467","ID0467.05","OV01",3,2,46,1,1,55.7,231.4,"HGSC"
"37","ID0807","ID0807.02","OV01",3,1,48,1,1,46.2,220.8,"Endometrioid"
"38","ID0909","ID0909.10","OV01",3,1,56,2,1,37.9,214.1,"Clear cell"
"39","ID0708","ID0708.06","OV01",3,1,48,1,1,35.4,211.4,"Clear cell"
"40","ID0795","ID0795.02","OV01",8,3,50,1,1,32.9,208.7,"Clear cell"
"41","ID1409","ID1409.05","OV01",7,1,58,2,1,32.9,177.1,"LGSC"
"42","ID0100","ID0100.01","OV01",3,3,59,2,2,37.4,70.9,"HGSC"
"43","ID0625","ID0625.04","OV01",3,2,48,1,1,34.9,196.6,"HGSC"
"44","ID0014","ID0014.01","OV01",3,3,68,2,2,33.3,48.6,"HGSC"
"45","ID0144","ID0144.02","OV01",2,1,60,2,2,31.2,114.6,"Clear cell"
"46","ID1724","ID1724.03","OV01",2,1,40,1,1,31,193.1,"Endometrioid"
"47","ID1083","ID1083.03","OV01",3,3,65,2,2,31.2,46.5,"HGSC"
"48","ID1108","ID1108.01","OV01",2,2,65,2,1,31.3,192,"Mixed"
"49","ID0714","ID0714.02","OV01",3,2,60,2,1,31.8,192.6,"HGSC"
"50","ID0408","ID0408.01","OV01",3,3,51,2,2,29,33.9,"Mixed"
"51","ID0099","ID0099.04","OV01",3,2,63,2,2,28.7,40.6,"Endometrioid"
"52","ID0903","ID0903.03","OV01",8,1,51,1,2,29.6,110.3,"Clear cell"
"53","ID0337","ID0337.16","OV01",3,1,53,1,1,28.2,190.1,"HGSC"
"54","ID1667","ID1667.01","OV01",2,1,70,2,2,42.7,183.4,"Mucinous"
"55","ID1733","ID1733.05","OV01",1,4,66,2,1,28.6,189.1,"Endometrioid"
"56","ID0330","ID0330.04","OV01",3,3,64,2,2,28.1,34.9,"Mixed"
"57","ID0865","ID0865.01","OV01",2,1,58,2,1,26.2,188.1,"Endometrioid"
"58","ID0066","ID0066.01","OV01",3,3,51,2,2,26.7,52.9,"HGSC"
"59","ID0888","ID0888.02","OV01",7,1,53,2,1,26.6,188.1,"LGSC"
"60","ID1370","ID1370.01","OV01",1,1,61,2,1,29.2,187.7,"Mucinous"
"61","ID0770","ID0770.12","OV01",3,1,50,1,1,26.6,187,"HGSC"
"62","ID0904","ID0904.09","OV01",8,1,46,1,2,25.7,81.9,"Clear cell"
"63","ID0608","ID0608.04","OV01",3,1,63,2,1,24.2,172.3,"Endometrioid"
"64","ID0422","ID0422.06","OV01",1,1,52,2,1,24.9,183.2,"Mixed"
"65","ID1664","ID1664.01","OV01",2,1,48,1,1,18.7,179.3,"Endometrioid"
"66","ID1892","ID1892.09","OV01",1,3,49,1,2,19.3,161.3,"LGSC"
"67","ID0571","ID0571.03","OV01",2,1,65,2,1,33.2,176.6,"Clear cell"
"68","ID0622","ID0622.01","OV01",3,4,59,2,2,33.3,45.4,"HGSC"
"69","ID1616","ID1616.07","OV01",7,1,57,888,2,31.1,98.5,"LGSC"
"70","ID1323","ID1323.02","OV01",3,88,61,2,2,33,129.6,"HGSC"
"71","ID1643","ID1643.16","OV01",7,2,54,1,1,32.5,176.7,"LGSC"
"72","ID1078","ID1078.04","OV01",3,2,32,1,1,32.1,176.6,"HGSC"
"73","ID0639","ID0639.06","OV01",1,1,56,888,1,36.5,173.6,"Clear cell"
"74","ID0009","ID0009.08","OV01",3,1,64,2,1,31.4,174.1,"Endometrioid"
"75","ID1506","ID1506.01","OV01",3,1,57,2,2,28.1,143,"Clear cell"
"76","ID1049","ID1049.01","OV01",8,1,57,2,1,27.2,172.6,"Clear cell"
"77","ID0365","ID0365.05","OV01",8,1,68,888,1,27.3,172,"Mucinous"
"78","ID1104","ID1104.01","OV01",3,3,58,2,2,24.3,28,"Mixed"
"79","ID0824","ID0824.01","OV01",3,2,55,2,1,24.6,168.3,"Endometrioid"
"80","ID1554","ID1554.18","OV01",3,1,57,2,1,24.4,169,"HGSC"
"81","ID1306","ID1306.02","OV01",3,4,60,2,2,22.4,53.2,"HGSC"
"82","ID0716","ID0716.01","OV01",2,3,44,1,1,31.1,176.5,"Endometrioid"
"83","ID0130","ID0130.01","OV01",3,1,46,888,1,27.2,165.5,"HGSC"
"84","ID1698","ID1698.10","OV01",7,1,50,1,1,26.3,154,"LGSC"
"85","ID1161","ID1161.01","OV01",8,1,48,1,2,19.2,77.6,"Clear cell"
"86","ID1837","ID1837.01","OV01",1,1,60,2,2,22.6,79.2,"Endometrioid"
"87","ID0168","ID0168.04","OV01",3,3,65,2,2,22.6,36.1,"HGSC"
"88","ID0671","ID0671.01","OV01",2,2,34,1,1,19.2,164.4,"Endometrioid"
"89","ID0474","ID0474.05","OV01",3,3,48,2,2,20.2,24.2,"HGSC"
"90","ID0289","ID0289.01","OV01",3,2,44,1,1,17.9,162.4,"HGSC"
"91","ID1258","ID1258.03","OV01",3,3,50,1,2,19.6,47.6,"HGSC"
"92","ID1164","ID1164.10","OV01",2,1,56,2,2,58.9,76.9,"Endometrioid"
"93","ID0479","ID0479.08","OV01",7,1,47,1,1,58.5,202.5,"LGSC"
"94","ID0554","ID0554.07","OV01",3,1,58,2,1,56.2,201.1,"Clear cell"
"95","ID1024","ID1024.02","OV01",3,3,50,1,2,33.7,44.7,"HGSC"
"96","ID0182","ID0182.08","OV01",3,3,49,2,1,40.2,181.3,"Clear cell"
"97","ID0513","ID0513.04","OV01",3,4,50,1,2,34,83.3,"HGSC"
"98","ID1719","ID1719.04","OV01",3,2,57,2,2,43.7,93.8,"HGSC"
"99","ID1398","ID1398.02","OV01",3,4,67,2,2,41.6,49,"HGSC"
"100","ID1403","ID1403.01","OV01",1,1,48,1,1,50.4,195.9,"Endometrioid"
"101","ID0104","ID0104.01","OV01",3,4,51,1,1,40.3,185.1,"HGSC"
"102","ID0341","ID0341.01","OV01",3,3,51,888,2,29,37.6,"HGSC"
"103","ID1776","ID1776.02","OV01",2,1,60,2,1,22.5,163.7,"Mixed"
"104","ID0655","ID0655.01","OV01",3,3,47,1,1,37.4,167.3,"HGSC"
"105","ID1737","ID1737.06","OV01",7,1,51,1,1,40.3,177.4,"LGSC"
"106","ID1399","ID1399.02","OV01",2,1,49,1,1,27.8,161.5,"Mixed"
"107","ID1499","ID1499.01","OV01",3,3,58,2,2,21,26,"HGSC"
"108","ID0248","ID0248.03","OV01",3,1,51,1,1,18,152.1,"Mucinous"
"109","ID1847","ID1847.06","OV01",3,2,57,2,1,19.8,153.6,"HGSC"
"110","ID1367","ID1367.05","OV01",7,1,54,1,1,26.9,160.9,"LGSC"
"111","ID0794","ID0794.05","OV01",3,3,36,1,2,31.5,86.1,"HGSC"
"112","ID0041","ID0041.01","OV01",2,4,67,2,1,20.5,154.1,"Mixed"
"113","ID1845","ID1845.15","OV01",2,1,54,1,2,28.7,128.2,"Endometrioid"
"114","ID1626","ID1626.06","OV01",7,88,59,2,1,29.2,162.6,"LGSC"
"115","ID0306","ID0306.01","OV01",1,1,43,1,1,52.2,186.1,"Mucinous"
"116","ID1094","ID1094.04","OV01",7,1,48,1,1,31.8,165,"LGSC"
"117","ID1431","ID1431.04","OV01",7,1,63,2,1,19.1,153,"Mucinous"
"118","ID0505","ID0505.01","OV01",3,3,65,2,2,11.8,15.9,"HGSC"
"119","ID1678","ID1678.02","OV01",3,4,68,2,2,11.2,33.9,"HGSC"
"120","ID1065","ID1065.04","OV01",3,3,67,2,2,19.2,35.8,"HGSC"
"121","ID1246","ID1246.02","OV01",3,3,62,2,2,20.7,28.2,"HGSC"
"122","ID0091","ID0091.08","OV01",3,2,60,2,1,22.3,155.7,"HGSC"
"123","ID1768","ID1768.03","OV01",3,3,43,888,2,25.7,29,"HGSC"
"124","ID0487","ID0487.04","OV01",2,4,42,1,2,16.2,27,"Clear cell"
"125","ID1854","ID1854.03","OV01",3,3,59,2,2,26.8,43.8,"HGSC"
"126","ID1152","ID1152.02","OV01",3,2,48,888,2,28.3,78.3,"HGSC"
"127","ID1570","ID1570.02","OV01",2,3,65,2,1,17.7,147.7,"Mucinous"
"128","ID0425","ID0425.01","OV01",3,1,62,888,2,15.1,110.4,"Endometrioid"
"129","ID0631","ID0631.10","OV01",1,1,56,1,1,26,156.5,"Endometrioid"
"130","ID1448","ID1448.02","OV01",2,1,46,1,2,34.4,129.5,"Clear cell"
"131","ID0713","ID0713.01","OV01",3,3,51,1,1,32.8,162.8,"Endometrioid"
"132","ID0191","ID0191.01","OV01",3,3,63,2,2,36.9,96.6,"HGSC"
"133","ID0018","ID0018.06","OV01",3,3,57,2,2,32.8,43.6,"HGSC"
"134","ID1416","ID1416.10","OV01",3,2,55,1,2,32.8,77.5,"Endometrioid"
"135","ID0301","ID0301.01","OV01",2,1,60,2,1,20.8,150.5,"Endometrioid"
"136","ID1358","ID1358.06","OV01",3,3,57,2,2,24.8,45.4,"HGSC"
"137","ID1405","ID1405.03","OV01",1,1,52,1,1,19.4,147.9,"Mixed"
"138","ID1636","ID1636.02","OV01",3,1,58,2,1,16.1,145.6,"Endometrioid"
"139","ID0847","ID0847.05","OV01",8,3,66,2,2,7,22.5,"Mixed"
"140","ID1474","ID1474.02","OV01",7,1,36,1,1,30.9,159.7,"LGSC"
"141","ID1307","ID1307.01","OV01",7,1,59,2,1,27,155.5,"LGSC"
"142","ID0784","ID0784.05","OV01",1,1,23,1,1,18,147.7,"Mucinous"
"143","ID0627","ID0627.03","OV01",3,3,59,2,2,16.4,84.6,"HGSC"
"144","ID0243","ID0243.04","OV01",3,3,63,2,2,14.4,65.8,"HGSC"
"145","ID0855","ID0855.01","OV01",3,1,48,1,1,11.8,141.1,"Clear cell"
"146","ID1564","ID1564.01","OV01",3,1,56,2,1,17.2,145.8,"Clear cell"
"147","ID0798","ID0798.01","OV01",2,2,39,1,1,15.4,144,"Endometrioid"
"148","ID1638","ID1638.03","OV01",1,1,45,2,1,15.2,143.3,"Mucinous"
"149","ID0529","ID0529.08","OV01",3,3,56,2,2,32.7,56.1,"HGSC"
"150","ID1716","ID1716.01","OV01",3,3,51,2,2,19.3,139.1,"HGSC"
"151","ID1883","ID1883.01","OV01",3,1,67,888,2,18.1,42.1,"HGSC"
"152","ID0393","ID0393.02","OV01",3,3,59,2,1,20.7,144.2,"HGSC"
"153","ID0581","ID0581.05","OV01",3,3,66,888,2,19.1,49.3,"HGSC"
"154","ID1392","ID1392.01","OV01",1,1,35,1,1,18.9,139.9,"Endometrioid"
"155","ID0530","ID0530.09","OV01",8,1,57,2,1,25.2,147.8,"Clear cell"
"156","ID1322","ID1322.04","OV01",1,1,68,2,2,24.7,117.6,"Endometrioid"
"157","ID1666","ID1666.08","OV01",3,1,38,888,2,17.9,49.6,"HGSC"
"158","ID0140","ID0140.02","OV01",7,1,66,888,1,14.4,132.7,"LGSC"
"159","ID1005","ID1005.02","OV01",2,1,44,1,1,16.6,134.4,"Mucinous"
"160","ID1572","ID1572.01","OV01",7,1,44,1,1,20.9,137.6,"Mucinous"
"161","ID1111","ID1111.02","OV01",3,1,65,2,2,16.9,55,"HGSC"
"162","ID1660","ID1660.19","OV01",3,3,63,2,1,19.5,136.1,"HGSC"
"163","ID0991","ID0991.07","OV01",1,1,63,2,2,14.2,92.3,"Endometrioid"
"164","ID0629","ID0629.01","OV01",1,1,32,1,1,14.1,126,"Mucinous"
"165","ID0257","ID0257.01","OV01",7,1,69,2,1,17.8,130,"LGSC"
"166","ID0236","ID0236.07","OV01",8,1,46,1,1,27.3,138.1,"Clear cell"
"167","ID0059","ID0059.03","OV01",7,1,43,1,1,13.7,124.9,"LGSC"
"168","ID0006","ID0006.32","OV01",7,1,28,1,1,23.4,123.5,"LGSC"
"169","ID0817","ID0817.03","OV01",2,1,68,2,1,9.4,116.1,"Endometrioid"
"170","ID1109","ID1109.08","OV01",7,1,60,2,1,26.4,126.9,"LGSC"
"171","ID1087","ID1087.02","OV01",7,1,42,1,1,19.8,120.6,"Mucinous"
"172","ID1472","ID1472.03","OV01",3,3,65,2,2,23.1,32.3,"HGSC"
"173","ID1621","ID1621.01","OV02",3,3,65,2,2,54.5,95.2,"HGSC"
"174","ID0787","ID0787.02","OV02",3,2,55,2,2,36.1,124.3,"HGSC"
"175","ID1016","ID1016.01","OV02",2,1,52,1,2,24.1,163,"Endometrioid"
"176","ID1532","ID1532.03","OV02",2,1,59,2,1,27.9,206.4,"Clear cell"
"177","ID0356","ID0356.02","OV02",3,3,58,2,2,33,79.8,"HGSC"
"178","ID1082","ID1082.06","OV02",3,1,60,2,1,32,210,"HGSC"
"179","ID0437","ID0437.18","OV02",3,3,49,1,2,25.7,40,"Endometrioid"
"180","ID1826","ID1826.06","OV02",3,1,54,1,2,11.9,157.7,"Clear cell"
"181","ID1382","ID1382.04","OV02",3,1,44,1,1,211.1,372.7,"HGSC"
"182","ID0452","ID0452.03","OV02",1,2,72,2,2,75.9,233.8,"Endometrioid"
"183","ID1066","ID1066.06","OV02",2,1,69,2,1,78.7,238,"Mucinous"
"184","ID0943","ID0943.04","OV02",8,1,45,1,1,169.8,328.4,"Clear cell"
"185","ID1511","ID1511.01","OV02",3,1,39,1,1,162.3,321.6,"HGSC"
"186","ID0491","ID0491.01","OV02",2,1,61,2,2,125.7,153.7,"Endometrioid"
"187","ID1064","ID1064.07","OV02",2,1,54,1,1,131.3,306.1,"Endometrioid"
"188","ID1194","ID1194.03","OV02",3,2,43,1,1,122.9,297.5,"HGSC"
"189","ID0965","ID0965.07","OV02",2,1,64,2,1,118.7,279.9,"Clear cell"
"190","ID0889","ID0889.13","OV02",2,1,48,1,2,117.7,274.5,"Endometrioid"
"191","ID0550","ID0550.04","OV02",1,1,47,1,1,97.4,258.2,"Endometrioid"
"192","ID1320","ID1320.06","OV02",3,2,60,2,2,88.1,106.6,"Endometrioid"
"193","ID1028","ID1028.01","OV02",2,1,60,2,1,92.9,269.8,"Clear cell"
"194","ID1217","ID1217.05","OV02",8,1,67,2,1,92.2,268.2,"Clear cell"
"195","ID0949","ID0949.05","OV02",2,1,71,888,2,75.6,231.7,"Mucinous"
"196","ID0198","ID0198.04","OV02",2,3,57,2,1,78.9,255.8,"Clear cell"
"197","ID0959","ID0959.03","OV02",8,2,67,2,1,71.5,235.5,"Clear cell"
"198","ID1909","ID1909.03","OV02",3,4,48,1,2,68.5,89.4,"HGSC"
"199","ID1760","ID1760.06","OV02",2,1,65,2,1,72.3,234.3,"Endometrioid"
"200","ID1804","ID1804.11","OV02",1,1,60,888,1,69.5,239.6,"LGSC"
"201","ID0964","ID0964.14","OV02",3,2,50,1,2,76.7,180.8,"HGSC"
"202","ID1395","ID1395.17","OV02",8,1,46,1,1,86.1,247.4,"Clear cell"
"203","ID1610","ID1610.02","OV02",8,1,72,2,2,75,132.3,"Clear cell"
"204","ID0944","ID0944.06","OV02",3,1,61,2,2,82.1,88.3,"HGSC"
"205","ID0967","ID0967.05","OV02",8,1,53,2,1,62.5,225.6,"Clear cell"
"206","ID1696","ID1696.03","OV02",8,1,65,2,1,97.9,260.2,"Clear cell"
"207","ID1316","ID1316.03","OV02",8,1,50,1,1,61.9,236.5,"Clear cell"
"208","ID0773","ID0773.03","OV02",1,1,54,1,2,60.5,89.2,"Endometrioid"
"209","ID0447","ID0447.08","OV02",3,1,57,2,1,60.6,235.3,"HGSC"
"210","ID1822","ID1822.05","OV02",3,3,60,2,2,64.4,78.6,"HGSC"
"211","ID0469","ID0469.01","OV02",2,1,56,1,1,57.8,233.5,"Endometrioid"
"212","ID1313","ID1313.06","OV02",3,1,53,1,1,52.4,228.3,"HGSC"
"213","ID1876","ID1876.03","OV02",1,1,45,1,1,63.3,237.5,"Endometrioid"
"214","ID1531","ID1531.07","OV02",1,1,52,1,1,63.4,225.3,"LGSC"
"215","ID1919","ID1919.07","OV02",2,1,57,2,1,55.8,228.6,"Endometrioid"
"216","ID0021","ID0021.03","OV02",3,3,46,1,2,57.4,98.5,"HGSC"
"217","ID0258","ID0258.01","OV02",8,1,44,1,1,84.9,246.6,"Mucinous"
"218","ID0314","ID0314.02","OV02",1,1,59,2,2,50.8,52.6,"Endometrioid"
"219","ID1468","ID1468.07","OV02",2,1,38,1,1,41.6,216.4,"Mucinous"
"220","ID1261","ID1261.04","OV02",1,1,56,2,1,47.4,225,"Mucinous"
"221","ID1324","ID1324.03","OV02",2,2,57,2,2,46.6,152.3,"Endometrioid"
"222","ID0250","ID0250.06","OV02",3,2,50,1,2,53.3,179.7,"HGSC"
"223","ID0562","ID0562.01","OV02",3,1,55,2,2,6.9,25.5,"Clear cell"
"224","ID1412","ID1412.05","OV02",2,1,64,2,2,4.8,69.2,"Endometrioid"
"225","ID0348","ID0348.07","OV02",3,3,46,1,2,14.3,50.3,"HGSC"
"226","ID1314","ID1314.17","OV02",1,1,35,1,1,31.5,192.3,"Endometrioid"
"227","ID0961","ID0961.02","OV02",3,3,51,1,2,28.1,29.8,"HGSC"
"228","ID1493","ID1493.09","OV02",2,1,51,1,2,26.4,78.2,"Endometrioid"
"229","ID0232","ID0232.03","OV02",3,4,61,2,2,26.2,56,"HGSC"
"230","ID0371","ID0371.02","OV02",1,2,58,2,1,20.3,181,"Endometrioid"
"231","ID0264","ID0264.03","OV02",3,1,44,1,1,28,172.7,"HGSC"
"232","ID1844","ID1844.02","OV02",1,2,67,2,1,30.6,171.4,"Clear cell"
"233","ID1823","ID1823.02","OV02",2,2,60,2,2,26,56.2,"Endometrioid"
"234","ID0892","ID0892.05","OV02",3,1,65,2,2,25.5,126.5,"HGSC"
"235","ID0994","ID0994.01","OV02",3,3,53,2,2,21.7,32.1,"HGSC"
"236","ID1333","ID1333.02","OV02",1,1,52,1,1,21.9,166.3,"Endometrioid"
"237","ID0043","ID0043.05","OV02",7,1,56,2,1,19.8,164.9,"LGSC"
"238","ID1793","ID1793.05","OV02",2,1,39,1,1,22.6,165.4,"Endometrioid"
"239","ID0051","ID0051.07","OV02",2,3,51,1,2,19.5,84.5,"Endometrioid"
"240","ID1491","ID1491.07","OV02",3,2,49,1,2,14.7,75.1,"HGSC"
"241","ID1072","ID1072.02","OV02",3,3,64,2,2,32.7,47.6,"HGSC"
"242","ID0814","ID0814.09","OV02",3,3,59,2,2,40.5,121.1,"HGSC"
"243","ID1888","ID1888.02","OV02",3,4,31,1,2,32.9,37.7,"HGSC"
"244","ID0642","ID0642.02","OV02",2,1,46,1,1,33.1,171.4,"Endometrioid"
"245","ID1908","ID1908.04","OV02",1,1,44,2,1,33,169.8,"Endometrioid"
"246","ID0055","ID0055.08","OV02",2,1,53,1,1,27.4,165.6,"Endometrioid"
"247","ID1150","ID1150.06","OV02",3,1,50,888,1,25.1,163.8,"HGSC"
"248","ID0484","ID0484.04","OV02",3,3,63,2,2,30.4,50.1,"HGSC"
"249","ID1300","ID1300.01","OV02",3,1,51,2,1,20.3,154.4,"HGSC"
"250","ID1105","ID1105.07","OV02",3,3,62,2,2,28.1,77.9,"HGSC"
"251","ID1173","ID1173.02","OV02",3,3,59,2,2,20.6,23.7,"HGSC"
"252","ID0697","ID0697.04","OV02",8,1,62,2,1,20.4,154.3,"Clear cell"
"253","ID0630","ID0630.04","OV02",3,1,52,2,1,20.6,154.3,"HGSC"
"254","ID1010","ID1010.02","OV02",3,4,53,1,1,20,153.2,"HGSC"
"255","ID0917","ID0917.02","OV02",1,3,58,2,2,19.9,22.1,"Mucinous"
"256","ID1053","ID1053.01","OV02",1,1,68,2,1,30.2,163.3,"LGSC"
"257","ID1526","ID1526.02","OV02",3,3,65,888,2,24.3,53.4,"HGSC"
"258","ID1647","ID1647.01","OV02",2,1,59,2,1,24.3,156.2,"Mucinous"
"259","ID0728","ID0728.02","OV02",3,3,61,2,2,20.2,30.8,"HGSC"
"260","ID1907","ID1907.02","OV02",3,3,60,2,2,11.4,45.2,"HGSC"
"261","ID1679","ID1679.02","OV02",1,3,57,2,2,11.2,37.1,"Mucinous"
"262","ID1144","ID1144.01","OV02",3,1,60,888,1,14.5,144.6,"Clear cell"
"263","ID1573","ID1573.02","OV02",3,4,63,2,1,28.6,158.1,"HGSC"
"264","ID0578","ID0578.03","OV02",1,3,54,1,1,21.5,148.5,"Endometrioid"
"265","ID0026","ID0026.01","OV02",8,88,64,2,1,30.9,157.1,"Mixed"
"266","ID1440","ID1440.06","OV02",3,3,56,888,2,21.7,92.8,"HGSC"
"267","ID1672","ID1672.02","OV02",3,1,50,1,1,15.9,142.3,"Endometrioid"
"268","ID1527","ID1527.03","OV02",3,4,47,888,2,18.2,28.3,"HGSC"
"269","ID0750","ID0750.02","OV02",3,4,67,888,2,11.5,34.4,"HGSC"
"270","ID1545","ID1545.01","OV02",1,1,58,2,1,19.3,136.7,"Endometrioid"
"271","ID1741","ID1741.01","OV02",3,2,48,1,2,46.1,92.2,"Mucinous"
"272","ID0575","ID0575.02","OV02",3,3,63,2,2,12.4,30.5,"HGSC"
"273","ID1725","ID1725.08","OV02",3,2,68,888,2,9.1,42.8,"HGSC"
"274","ID0153","ID0153.13","OV02",1,3,48,1,2,19.6,47,"LGSC"
"275","ID1328","ID1328.04","OV02",2,1,59,2,1,18.7,136.2,"Mucinous"
"276","ID1808","ID1808.01","OV02",3,1,68,2,2,11.5,77.2,"Endometrioid"
"277","ID1492","ID1492.05","OV02",3,3,43,2,2,19.4,48.1,"HGSC"
"278","ID1591","ID1591.05","OV02",3,2,65,2,1,18.2,133.4,"HGSC"
"279","ID0532","ID0532.01","OV02",3,3,50,1,2,25.5,36.4,"HGSC"
"280","ID1421","ID1421.11","OV02",3,2,55,888,1,18.5,127.8,"Clear cell"
"281","ID1624","ID1624.06","OV02",3,3,57,2,2,27.8,63.2,"HGSC"
"282","ID1360","ID1360.02","OV02",3,3,49,1,1,17.6,130.3,"HGSC"
"283","ID0186","ID0186.03","OV02",3,3,54,2,2,19.3,76.8,"HGSC"
"284","ID1609","ID1609.03","OV02",3,3,56,2,2,16.4,70.7,"HGSC"
"285","ID0587","ID0587.16","OV02",3,3,35,1,1,10.2,122.9,"HGSC"
"286","ID0471","ID0471.04","OV02",3,4,61,2,2,16.9,21.6,"HGSC"
"287","ID0558","ID0558.02","OV02",3,1,64,2,1,16.6,128.1,"HGSC"
"288","ID0315","ID0315.08","OV02",3,1,50,1,2,20.7,49.4,"Clear cell"
"289","ID1073","ID1073.02","OV02",3,4,68,2,2,22.2,29.1,"HGSC"
"290","ID0701","ID0701.01","OV02",3,3,63,2,2,19.3,31.4,"HGSC"
"291","ID0266","ID0266.07","OV02",2,1,54,1,1,19.1,127,"Clear cell"
"292","ID0791","ID0791.02","OV02",1,1,63,2,1,24.5,133.4,"Clear cell"
"293","ID0619","ID0619.01","OV02",3,3,60,2,2,25.1,69.6,"HGSC"
"294","ID1051","ID1051.08","OV02",3,1,56,2,2,19.8,55.4,"HGSC"
"295","ID1372","ID1372.07","OV02",1,1,60,2,2,20.8,80.9,"LGSC"
"296","ID1878","ID1878.04","OV02",3,3,60,2,1,24.1,111.8,"HGSC"
"297","ID0214","ID0214.03","OV02",3,3,46,1,2,19.4,22.9,"HGSC"
"298","ID0307","ID0307.07","OV02",3,1,59,2,2,22.4,99.8,"HGSC"
"299","ID1061","ID1061.02","OV02",3,1,62,2,1,18.9,118.5,"Clear cell"
"300","ID1896","ID1896.07","OV02",3,3,55,2,2,16.5,42.7,"HGSC"
"301","ID1706","ID1706.10","OV02",8,1,68,2,1,25.8,122.5,"Mixed"
"302","ID0901","ID0901.15","OV02",3,3,65,2,2,20.6,30.4,"HGSC"
"303","ID0016","ID0016.02","OV02",8,1,60,2,2,18.3,116,"Mixed"
"304","ID0072","ID0072.07","OV02",3,3,63,2,2,18.9,64.5,"HGSC"
"305","ID1305","ID1305.05","OV02",3,3,56,2,1,16.1,113.7,"HGSC"
"306","ID0473","ID0473.07","OV02",3,3,68,2,1,14,112.8,"HGSC"
"307","ID0996","ID0996.09","OV02",3,1,58,888,1,24.4,113.4,"Clear cell"
"308","ID0420","ID0420.10","OV02",8,1,48,1,1,12.6,111.6,"Clear cell"
"309","ID0226","ID0226.02","OV02",3,3,53,2,1,27.1,124.5,"HGSC"
"310","ID1311","ID1311.01","OV02",3,3,61,2,2,18.9,31.7,"HGSC"
"311","ID0029","ID0029.01","OV02",3,3,59,2,2,16.1,29.5,"HGSC"
"312","ID1890","ID1890.04","OV02",3,1,62,2,1,24.1,115.3,"HGSC"
"313","ID0481","ID0481.02","OV02",3,1,66,2,1,22,114.3,"HGSC"
"314","ID0649","ID0649.03","OV02",3,1,65,2,1,18.1,111.5,"Endometrioid"
"315","ID0200","ID0200.07","OV02",7,1,23,1,1,19.5,110.6,"LGSC"
"316","ID0281","ID0281.14","OV02",1,1,63,2,1,14.5,105.8,"Endometrioid"
"317","ID0336","ID0336.09","OV02",3,3,49,2,2,22.1,103.9,"HGSC"
"318","ID1179","ID1179.09","OV02",1,1,40,1,1,12.6,104.6,"Endometrioid"
"319","ID0235","ID0235.15","OV02",7,1,55,2,1,16.3,104.6,"Mucinous"
"320","ID1540","ID1540.09","OV02",3,3,50,2,2,28.4,55.8,"HGSC"
"321","ID1354","ID1354.06","OV02",3,3,58,2,2,23,33.3,"HGSC"
"322","ID0324","ID0324.02","OV02",2,1,53,2,1,18.9,102.8,"Endometrioid"
"323","ID0599","ID0599.02","OV02",1,1,65,2,1,22.4,103.5,"Endometrioid"
"324","ID1729","ID1729.04","OV02",7,1,64,2,1,15.6,100.1,"Mucinous"
"325","ID1675","ID1675.08","OV02",3,4,61,2,2,13.4,39.2,"HGSC"
"326","ID1346","ID1346.13","OV02",3,3,62,2,1,26.4,109.2,"HGSC"
"327","ID1578","ID1578.03","OV02",1,1,56,2,1,22.2,105.1,"Mucinous"
"328","ID0687","ID0687.07","OV02",1,1,68,2,1,21.2,104,"Endometrioid"
"329","ID1429","ID1429.05","OV02",3,3,69,2,1,27.5,110.2,"HGSC"
"330","ID0793","ID0793.03","OV02",7,1,28,1,1,11.7,93.6,"LGSC"
"331","ID0626","ID0626.11","OV02",3,2,64,2,2,19.4,54.8,"HGSC"
"332","ID0457","ID0457.04","OV02",1,1,58,2,1,16.8,98.5,"Mucinous"
"333","ID0155","ID0155.13","OV02",8,3,57,1,1,12.5,93,"Clear cell"
"334","ID1233","ID1233.02","OV02",1,1,49,1,1,11.3,92.3,"Mucinous"
"335","ID0150","ID0150.06","OV02",3,3,65,2,2,21.3,26.8,"HGSC"
"336","ID1603","ID1603.02","OV02",3,1,54,2,1,22.7,97.1,"HGSC"
"337","ID0610","ID0610.08","OV02",3,3,65,2,1,21.1,95.9,"HGSC"
"338","ID0766","ID0766.16","OV02",3,4,51,1,2,21,37.1,"HGSC"
"339","ID0709","ID0709.05","OV02",3,3,68,2,2,21.2,23.3,"HGSC"
"340","ID0966","ID0966.04","OV02",7,1,67,2,1,19.3,94.5,"Mucinous"
"341","ID0376","ID0376.09","OV02",3,3,61,2,2,17.2,34,"HGSC"
"342","ID1690","ID1690.03","OV02",3,3,69,2,1,21.7,95.8,"HGSC"
"343","ID0776","ID0776.01","OV02",3,3,67,2,2,20.7,81.4,"HGSC"
"344","ID0139","ID0139.13","OV02",3,3,57,2,2,19.5,37.1,"HGSC"
"345","ID0442","ID0442.11","OV03",0,1,59,2,2,54.2,225.2,"Mucinous"
"346","ID0950","ID0950.09","OV03",3,2,60,2,1,19.2,197,"HGSC"
"347","ID0202","ID0202.04","OV03",3,3,45,1,1,95.1,273.4,"HGSC"
"348","ID0911","ID0911.07","OV03",3,1,59,2,1,36.1,212.8,"HGSC"
"349","ID0831","ID0831.04","OV03",2,1,45,1,1,16.7,194.2,"Mucinous"
"350","ID1860","ID1860.16","OV03",2,1,73,2,2,78.7,159.3,"Mucinous"
"351","ID1817","ID1817.06","OV03",1,2,68,2,2,22.3,26.4,"LGSC"
"352","ID1700","ID1700.10","OV03",3,3,53,1,2,32,95.9,"HGSC"
"353","ID1098","ID1098.03","OV03",2,3,69,2,2,29.4,36.5,"Mucinous"
"354","ID1571","ID1571.06","OV03",2,1,50,1,1,33.6,212.3,"Endometrioid"
"355","ID1081","ID1081.06","OV03",1,1,57,888,1,83.2,248.5,"Mucinous"
"356","ID0260","ID0260.10","OV03",3,3,55,2,2,37.3,55.6,"HGSC"
"357","ID1592","ID1592.07","OV03",2,1,44,1,1,35.4,213.3,"Endometrioid"
"358","ID1230","ID1230.03","OV03",3,1,59,1,1,31.2,210.7,"Endometrioid"
"359","ID0760","ID0760.10","OV03",1,1,60,2,1,71.3,204.1,"Endometrioid"
"360","ID1836","ID1836.03","OV03",2,2,66,2,2,41.2,96.1,"Endometrioid"
"361","ID0477","ID0477.06","OV03",2,3,52,1,1,194.6,372.3,"Endometrioid"
"362","ID0815","ID0815.14","OV03",1,1,73,2,2,122.9,147.5,"Endometrioid"
"363","ID1209","ID1209.03","OV03",3,1,58,2,2,121.9,180.4,"HGSC"
"364","ID1875","ID1875.01","OV03",3,3,57,2,1,87.5,265.6,"HGSC"
"365","ID1189","ID1189.02","OV03",3,3,64,2,1,84.7,249.8,"HGSC"
"366","ID1897","ID1897.19","OV03",3,2,66,2,2,85.4,123,"HGSC"
"367","ID0613","ID0613.01","OV03",3,3,48,888,1,82.4,260.9,"HGSC"
"368","ID0353","ID0353.01","OV03",3,1,64,2,2,75.1,83.3,"HGSC"
"369","ID1607","ID1607.18","OV03",3,4,58,1,2,85.9,136.7,"HGSC"
"370","ID1275","ID1275.09","OV03",3,1,53,1,1,80.3,255,"HGSC"
"371","ID0988","ID0988.04","OV03",8,1,67,2,2,68.3,103.8,"Clear cell"
"372","ID1011","ID1011.11","OV03",8,2,44,1,1,68,243.9,"Clear cell"
"373","ID1331","ID1331.02","OV03",8,1,56,2,1,64.9,243,"Clear cell"
"374","ID1556","ID1556.11","OV03",2,1,48,1,2,50.6,59.8,"Mucinous"
"375","ID1052","ID1052.12","OV03",3,1,61,2,2,47.8,72.3,"HGSC"
"376","ID0360","ID0360.05","OV03",3,1,60,2,1,52.9,226.6,"Endometrioid"
"377","ID0839","ID0839.04","OV03",8,1,63,2,2,94.5,209.9,"Clear cell"
"378","ID0310","ID0310.01","OV03",8,1,39,1,1,51.3,229.1,"Clear cell"
"379","ID1033","ID1033.02","OV03",3,1,35,888,2,57.3,106.4,"HGSC"
"380","ID0377","ID0377.02","OV03",2,1,56,2,2,59.7,180.7,"Endometrioid"
"381","ID0319","ID0319.04","OV03",2,2,29,1,1,51.1,228.7,"Endometrioid"
"382","ID0181","ID0181.07","OV03",1,1,63,2,1,46.5,224.5,"Mucinous"
"383","ID0326","ID0326.10","OV03",1,1,49,888,1,46.4,223.8,"Endometrioid"
"384","ID1797","ID1797.07","OV03",2,1,39,1,1,34.9,212.7,"Mucinous"
"385","ID1832","ID1832.05","OV03",1,1,49,1,1,49.6,223.1,"Endometrioid"
"386","ID0546","ID0546.12","OV03",2,1,58,2,1,41.2,218.1,"Endometrioid"
"387","ID0757","ID0757.05","OV03",3,3,53,1,2,28.8,58.5,"HGSC"
"388","ID0672","ID0672.07","OV03",1,1,66,2,1,70,197.7,"Mucinous"
"389","ID1253","ID1253.04","OV03",3,1,50,2,1,36.3,168.2,"HGSC"
"390","ID0372","ID0372.02","OV03",3,88,70,2,2,4.9,83.1,"HGSC"
"391","ID0137","ID0137.02","OV03",3,4,59,2,2,14.6,22.9,"HGSC"
"392","ID0755","ID0755.01","OV03",3,3,56,2,2,19.1,22.7,"HGSC"
"393","ID1728","ID1728.01","OV03",3,3,50,1,2,33.7,92.4,"HGSC"
"394","ID1097","ID1097.05","OV03",7,1,34,1,1,34.5,195.3,"Mucinous"
"395","ID0318","ID0318.06","OV03",8,1,43,1,1,31.5,193.4,"Clear cell"
"396","ID0468","ID0468.10","OV03",2,1,52,2,1,31.9,193,"Endometrioid"
"397","ID0451","ID0451.01","OV03",2,1,63,2,2,12,105.8,"Mucinous"
"398","ID1224","ID1224.03","OV03",1,3,66,2,1,47.4,189.3,"LGSC"
"399","ID1434","ID1434.06","OV03",1,1,54,1,2,29.7,71.1,"Endometrioid"
"400","ID1188","ID1188.02","OV03",3,3,55,2,2,28.3,33.8,"HGSC"
"401","ID0983","ID0983.07","OV03",2,2,43,1,1,26.2,188.3,"Endometrioid"
"402","ID0246","ID0246.07","OV03",1,1,53,2,1,27,186.7,"Endometrioid"
"403","ID0039","ID0039.02","OV03",2,1,35,1,1,23.5,184.4,"Non-epi"
"404","ID0158","ID0158.02","OV03",3,3,44,1,2,22.8,75.2,"HGSC"
"405","ID0347","ID0347.11","OV03",3,3,71,2,2,23.7,48.2,"HGSC"
"406","ID1365","ID1365.04","OV03",2,2,59,2,2,23.6,61.9,"Endometrioid"
"407","ID0820","ID0820.09","OV03",8,1,47,888,1,34.5,175.8,"Clear cell"
"408","ID1840","ID1840.01","OV03",1,3,46,1,1,28.5,173.9,"LGSC"
"409","ID1555","ID1555.01","OV03",8,1,68,2,2,27.6,37.7,"Clear cell"
"410","ID0606","ID0606.05","OV03",3,1,53,1,1,30.4,173.2,"HGSC"
"411","ID0862","ID0862.01","OV03",3,1,58,2,1,27,171.4,"HGSC"
"412","ID0804","ID0804.06","OV03",2,1,42,1,2,35.8,164.8,"Endometrioid"
"413","ID0902","ID0902.05","OV03",1,1,54,1,1,18.4,163.8,"Endometrioid"
"414","ID0654","ID0654.05","OV03",3,3,54,2,1,34.3,179.2,"HGSC"
"415","ID0374","ID0374.11","OV03",2,1,59,2,1,36.2,167.5,"Endometrioid"
"416","ID1318","ID1318.11","OV03",7,1,45,888,2,19.3,75.7,"Mucinous"
"417","ID0175","ID0175.08","OV03",8,1,53,2,1,23.1,152,"Clear cell"
"418","ID0552","ID0552.03","OV03",3,3,65,2,2,23.7,36.9,"HGSC"
"419","ID1535","ID1535.09","OV03",8,88,50,1,2,46.1,89.2,"Mixed"
"420","ID1076","ID1076.12","OV03",3,3,56,2,1,20,144.5,"HGSC"
"421","ID0957","ID0957.10","OV03",3,3,58,2,1,23.5,144,"HGSC"
"422","ID0332","ID0332.10","OV03",2,3,49,1,2,20.5,89,"Endometrioid"
"423","ID0252","ID0252.01","OV03",3,4,65,2,2,16,99.7,"HGSC"
"424","ID0095","ID0095.01","OV03",3,3,47,1,2,25.1,54.4,"HGSC"
"425","ID0663","ID0663.11","OV03",1,3,36,1,2,14.3,84,"HGSC"
"426","ID0426","ID0426.12","OV03",1,3,61,2,1,18.9,130,"HGSC"
"427","ID0148","ID0148.18","OV03",8,2,58,2,1,22.1,134.1,"Clear cell"
"428","ID1312","ID1312.01","OV03",8,1,51,1,1,14,113.4,"Clear cell"
"429","ID0945","ID0945.02","OV03",3,3,66,2,2,14.3,17.2,"HGSC"
"430","ID0237","ID0237.02","OV03",2,1,64,2,1,11.5,122.3,"Endometrioid"
"431","ID0022","ID0022.01","OV03",3,3,61,2,1,18.4,126.4,"HGSC"
"432","ID0989","ID0989.02","OV03",8,1,59,2,1,15.2,122,"Clear cell"
"433","ID1407","ID1407.04","OV03",3,3,58,2,2,19.1,83.4,"HGSC"
"434","ID1831","ID1831.02","OV03",3,2,47,1,1,14.4,117.5,"HGSC"
"435","ID1687","ID1687.02","OV03",3,1,66,2,2,13.6,26.4,"Clear cell"
"436","ID1166","ID1166.02","OV03",3,3,65,2,2,17,26.2,"HGSC"
"437","ID1654","ID1654.02","OV03",3,2,54,1,1,23.2,111.7,"HGSC"
"438","ID1339","ID1339.02","OV03",2,1,53,1,1,19.9,118.8,"Clear cell"
"439","ID0119","ID0119.04","OV03",3,3,67,2,2,10.3,56.5,"HGSC"
"440","ID1157","ID1157.02","OV03",3,3,64,2,1,15.7,117.8,"HGSC"
"441","ID1287","ID1287.04","OV03",3,3,54,2,2,17,64.1,"HGSC"
"442","ID0877","ID0877.01","OV03",3,3,68,888,2,12.5,24.8,"HGSC"
"443","ID0800","ID0800.01","OV03",3,2,61,2,1,14,110.8,"HGSC"
"444","ID1100","ID1100.02","OV03",3,3,66,2,2,15.3,75.1,"HGSC"
"445","ID0790","ID0790.13","OV03",3,3,67,2,2,9.8,36.6,"HGSC"
"446","ID0070","ID0070.02","OV03",3,1,60,2,2,7.2,41.3,"Clear cell"
"447","ID1523","ID1523.02","OV03",3,3,54,2,2,17.7,90.8,"HGSC"
"448","ID0221","ID0221.03","OV03",3,2,42,1,2,17.8,78.1,"HGSC"
"449","ID0720","ID0720.02","OV03",1,1,66,2,1,17.7,110.2,"LGSC"
"450","ID1471","ID1471.01","OV03",8,1,59,888,2,22.2,104,"Endometrioid"
"451","ID0492","ID0492.04","OV03",3,3,64,2,1,16.9,110,"HGSC"
"452","ID0926","ID0926.05","OV03",3,3,61,2,2,13.2,35,"HGSC"
"453","ID1707","ID1707.01","OV03",1,1,58,2,1,14.7,103.9,"Endometrioid"
"454","ID1726","ID1726.02","OV03",3,2,62,2,1,14.5,105.3,"HGSC"
"455","ID1774","ID1774.03","OV03",8,2,60,2,1,17.2,105.1,"Mixed"
"456","ID0924","ID0924.03","OV03",1,3,46,2,1,20.2,105.1,"HGSC"
"457","ID1374","ID1374.02","OV03",3,88,54,1,1,35.7,124.7,"HGSC"
"458","ID1377","ID1377.07","OV03",7,88,66,2,1,35.8,124.4,"LGSC"
"459","ID0920","ID0920.17","OV03",7,88,61,2,1,27,115.7,"Mucinous"
"460","ID0049","ID0049.02","OV03",2,1,64,2,1,22.7,104.5,"Endometrioid"
"461","ID0806","ID0806.04","OV03",3,3,63,2,2,20.7,56.3,"HGSC"
"462","ID1022","ID1022.12","OV03",3,3,58,1,2,17.9,66.6,"HGSC"
"463","ID0851","ID0851.15","OV03",8,1,48,1,2,15.7,59.1,"Clear cell"
"464","ID0340","ID0340.03","OV03",3,1,58,2,1,11,92.4,"Mixed"
"465","ID1284","ID1284.06","OV03",3,88,67,2,1,61.1,142.8,"HGSC"
"466","ID0076","ID0076.11","OV03",7,88,57,888,2,47.6,100.3,"Mucinous"
"467","ID1000","ID1000.05","OV03",2,88,62,2,1,47.2,128.2,"Mucinous"
"468","ID1868","ID1868.12","OV03",8,3,58,2,1,40.6,109.7,"Clear cell"
"469","ID1787","ID1787.16","OV03",3,88,64,888,2,49.9,61.6,"HGSC"
"470","ID1921","ID1921.04","OV03",8,88,55,1,1,49.9,130.4,"Mucinous"
"471","ID1779","ID1779.04","OV03",2,88,53,2,1,50.7,131.6,"Endometrioid"
"472","ID1767","ID1767.04","OV03",3,88,64,2,2,51.6,116.3,"HGSC"
"473","ID1290","ID1290.02","OV03",3,3,52,2,2,22.3,25.8,"HGSC"
"474","ID1625","ID1625.03","OV03",3,3,53,2,2,23.9,71.8,"HGSC"
"475","ID0704","ID0704.22","OV03",3,1,63,2,2,19,40,"HGSC"
"476","ID1662","ID1662.01","OV03",8,1,54,2,1,16.8,97.9,"Clear cell"
"477","ID0219","ID0219.16","OV03",1,3,66,2,2,41.1,71.5,"LGSC"
"478","ID0379","ID0379.10","OV03",3,3,64,2,2,27.3,59.8,"HGSC"
"479","ID0171","ID0171.07","OV03",3,3,63,2,2,24.8,33.9,"HGSC"
"480","ID1304","ID1304.04","OV03",3,3,67,2,2,27.8,46.5,"HGSC"
"481","ID1121","ID1121.02","OV03",3,3,49,2,2,27.9,41.1,"HGSC"
"482","ID1525","ID1525.08","OV03",3,2,44,1,1,23.7,95.9,"HGSC"
"483","ID0296","ID0296.01","OV03",8,1,52,1,1,25.3,95.9,"Endometrioid"
"484","ID1069","ID1069.02","OV03",3,1,55,888,1,29.5,95.8,"HGSC"
"485","ID1597","ID1597.14","OV03",3,3,60,2,2,24,37.4,"HGSC"
"486","ID0860","ID0860.08","OV03",3,3,56,2,2,26.3,34.3,"HGSC"
"487","ID0688","ID0688.09","OV03",7,1,47,1,1,23.8,94.5,"LGSC"
"488","ID0962","ID0962.01","OV03",3,3,58,2,2,29.2,44.7,"HGSC"
"489","ID0270","ID0270.08","OV03",3,3,68,2,2,25.8,89.2,"HGSC"
"490","ID0621","ID0621.05","OV03",2,1,39,1,1,41.7,94.8,"Mucinous"
"491","ID0841","ID0841.02","OV03",1,1,65,2,1,28.6,94.9,"Mucinous"
"492","ID1697","ID1697.06","OV03",3,3,53,2,2,25.6,53.7,"HGSC"
"493","ID0900","ID0900.03","OV03",1,1,49,1,1,22.6,91.8,"Endometrioid"
"494","ID1103","ID1103.04","OV03",3,3,69,2,1,30.8,95,"HGSC"
"495","ID1067","ID1067.09","OV03",3,3,54,2,2,17.8,48.1,"HGSC"
"496","ID0951","ID0951.01","OV03",3,1,53,1,1,20,89.7,"HGSC"
"497","ID0833","ID0833.09","OV03",3,3,66,2,2,26.1,48.1,"HGSC"
"498","ID1297","ID1297.07","OV03",3,1,47,1,1,31.1,92,"HGSC"
"499","ID1651","ID1651.01","OV03",3,3,69,2,1,25.9,89,"HGSC"
"500","ID0937","ID0937.20","OV03",8,2,51,2,1,22.6,84.2,"Mixed"
"501","ID1842","ID1842.02","OV03",3,4,60,2,2,16.1,30.4,"HGSC"
"502","ID1565","ID1565.06","OV03",3,4,63,2,2,16.2,18.7,"HGSC"
"503","ID1356","ID1356.01","OV03",3,3,51,1,1,37.5,98.3,"HGSC"
"504","ID0640","ID0640.10","OV03",1,1,65,2,1,22.1,81.6,"Endometrioid"
"505","ID0923","ID0923.06","OV03",3,4,63,2,2,18.6,50,"HGSC"
"506","ID1920","ID1920.07","OV03",1,1,53,2,1,20.7,78.6,"Endometrioid"
"507","ID0939","ID0939.11","OV03",3,3,61,2,1,17.7,78.6,"HGSC"
"508","ID0170","ID0170.12","OV03",3,1,58,2,1,16.2,77,"HGSC"
"509","ID0942","ID0942.08","OV03",3,1,66,2,1,16.4,74.8,"HGSC"
"510","ID0112","ID0112.08","OV03",3,3,51,1,1,16.1,74.8,"HGSC"
"511","ID0576","ID0576.09","OV03",2,1,68,2,1,31.8,90,"Endometrioid"
"512","ID0003","ID0003.07","OV03",3,1,61,2,1,27,85.2,"HGSC"
"513","ID1345","ID1345.04","OV03",3,3,62,2,1,19.7,78.2,"HGSC"
"514","ID1604","ID1604.07","OV03",3,1,46,1,2,14.8,52.3,"HGSC"
"515","ID0205","ID0205.02","OV03",3,4,63,2,1,19.3,69.7,"HGSC"
"516","ID0333","ID0333.05","OV03",3,3,69,2,2,31.3,61.6,"HGSC"
"517","ID1132","ID1132.01","OV04",3,1,59,2,1,31.6,209.3,"Mixed"
"518","ID0418","ID0418.07","OV04",1,2,64,2,1,78.2,254.2,"LGSC"
"519","ID1255","ID1255.03","OV04",3,3,55,1,2,30.5,49.1,"HGSC"
"520","ID0398","ID0398.06","OV04",3,2,68,2,2,22,100.9,"Mixed"
"521","ID1215","ID1215.06","OV04",3,1,65,2,2,90.3,219.5,"Mixed"
"522","ID1136","ID1136.07","OV04",2,3,40,1,1,33,210.5,"Mixed"
"523","ID1237","ID1237.03","OV04",1,2,51,2,2,31.7,79.8,"Mixed"
"524","ID1764","ID1764.02","OV04",2,1,44,1,1,22.7,200.9,"Mixed"
"525","ID0034","ID0034.02","OV04",2,3,53,1,2,18.9,30.3,"Mixed"
"526","ID1457","ID1457.02","OV04",3,2,69,2,2,19.1,140.9,"Mixed"
"527","ID0528","ID0528.03","OV04",2,1,41,1,2,76.3,129.6,"Mixed"
"528","ID1685","ID1685.13","OV04",1,1,26,888,1,69.2,227.4,"Mucinous"
"529","ID1563","ID1563.05","OV04",1,1,52,1,1,60.5,238.6,"Endometrioid"
"530","ID1815","ID1815.21","OV04",1,1,42,1,1,95.3,237.4,"Mucinous"
"531","ID0707","ID0707.07","OV04",3,3,54,1,2,49.7,55.1,"HGSC"
"532","ID1877","ID1877.06","OV04",3,3,52,1,1,37.6,215.1,"HGSC"
"533","ID0836","ID0836.04","OV04",3,1,54,2,1,46.9,221.1,"Mixed"
"534","ID0611","ID0611.03","OV04",3,1,64,2,1,34.4,212.5,"Mixed"
"535","ID1177","ID1177.03","OV04",2,2,65,2,8,15.6,NA,"Other"
"536","ID0788","ID0788.08","OV04",3,88,72,2,2,22.9,27.6,"HGSC"
"537","ID0249","ID0249.02","OV04",2,88,48,1,8,70,NA,"Mixed"
"538","ID1187","ID1187.18","OV04",3,88,45,1,2,73.8,109.1,"HGSC"
"539","ID0389","ID0389.01","OV04",3,88,64,2,8,73.4,NA,"Endometrioid"
"540","ID0659","ID0659.03","OV04",3,88,60,2,8,66.2,NA,"Clear cell"
"541","ID1147","ID1147.09","OV04",3,1,47,1,2,66.3,94.3,"Clear cell"
"542","ID1059","ID1059.01","OV04",2,88,54,2,2,55.2,66.6,"Mixed"
"543","ID0899","ID0899.11","OV04",3,88,47,1,8,57.7,NA,"Endometrioid"
"544","ID0053","ID0053.02","OV04",3,88,48,1,2,56.6,61.8,"HGSC"
"545","ID0239","ID0239.02","OV04",3,88,51,1,2,43.8,49.9,"HGSC"
"546","ID1708","ID1708.16","OV04",3,88,51,2,2,48.8,111.6,"HGSC"
"547","ID0401","ID0401.04","OV04",3,88,54,2,8,36.8,NA,"Clear cell"
"548","ID0779","ID0779.01","OV04",3,3,58,2,2,33.3,44.3,"HGSC"
"549","ID1608","ID1608.01","OV04",3,4,65,2,2,36.6,72.5,"HGSC"
"550","ID1309","ID1309.01","OV04",1,88,35,2,8,37.7,NA,"Endometrioid"
"551","ID1539","ID1539.01","OV04",1,88,57,2,2,35.9,93.9,"Endometrioid"
"552","ID0368","ID0368.02","OV04",3,3,50,1,2,36.1,65.2,"HGSC"
"553","ID1595","ID1595.01","OV04",3,3,70,2,2,41.9,114.9,"HGSC"
"554","ID1856","ID1856.02","OV04",3,88,68,2,2,32.4,59.6,"HGSC"
"555","ID0598","ID0598.03","OV04",3,3,53,2,2,29.1,39.8,"HGSC"
"556","ID0667","ID0667.03","OV04",3,3,58,2,2,28.3,32.4,"HGSC"
"557","ID1866","ID1866.03","OV04",2,2,55,2,2,31,35.8,"Endometrioid"
"558","ID0693","ID0693.02","OV04",3,1,69,2,8,32.7,NA,"HGSC"
"559","ID1691","ID1691.01","OV04",3,88,62,2,8,25.1,NA,"Clear cell"
"560","ID1715","ID1715.08","OV04",2,3,53,2,2,29.9,32.2,"Mixed"
"561","ID0801","ID0801.01","OV04",3,2,74,2,8,26,NA,"HGSC"
"562","ID0838","ID0838.03","OV04",3,88,69,2,2,26.3,86.1,"HGSC"
"563","ID1461","ID1461.02","OV04",1,88,58,2,2,26,85.4,"Endometrioid"
"564","ID0002","ID0002.04","OV04",3,2,51,2,2,27.4,46.2,"HGSC"
"565","ID0225","ID0225.02","OV04",3,3,67,2,2,23.5,25.4,"HGSC"
"566","ID0754","ID0754.01","OV04",3,4,49,1,2,20.2,46.3,"HGSC"
"567","ID0844","ID0844.05","OV04",3,88,62,2,2,25.8,28.1,"HGSC"
"568","ID1176","ID1176.04","OV04",2,2,68,2,2,15.2,144.5,"Mixed"
"569","ID1193","ID1193.02","OV04",3,1,69,2,1,24.9,186.5,"HGSC"
"570","ID1598","ID1598.06","OV04",2,1,54,1,1,36.8,198.6,"Mixed"
"571","ID0542","ID0542.02","OV04",2,3,50,1,2,31.3,174.2,"Mixed"
"572","ID0220","ID0220.01","OV04",2,2,55,1,2,27.8,38.2,"Mixed"
"573","ID0456","ID0456.03","OV04",3,2,73,2,2,25.3,79.5,"Mixed"
"574","ID1281","ID1281.06","OV04",1,1,68,2,2,25.4,72,"Mixed"
"575","ID0873","ID0873.09","OV04",3,3,68,2,2,24.6,172.9,"HGSC"
"576","ID1006","ID1006.13","OV04",3,2,47,1,1,40.8,184,"Mixed"
"577","ID0074","ID0074.10","OV04",2,2,65,2,2,21.4,60,"Mixed"
"578","ID1902","ID1902.06","OV04",1,1,51,1,1,22.3,181.9,"HGSC"
"579","ID0075","ID0075.01","OV04",3,88,41,1,2,21.1,65.9,"HGSC"
"580","ID0305","ID0305.01","OV04",1,1,29,1,2,19.1,28.5,"Mucinous"
"581","ID0825","ID0825.04","OV04",3,3,47,1,2,19.9,46.3,"HGSC"
"582","ID0407","ID0407.02","OV04",1,1,37,1,8,21.8,NA,"Mucinous"
"583","ID1714","ID1714.03","OV04",3,3,57,2,2,18,37.3,"HGSC"
"584","ID1721","ID1721.02","OV04",3,3,55,2,2,35.4,86.1,"HGSC"
"585","ID1116","ID1116.01","OV04",3,1,74,2,8,29.2,NA,"HGSC"
"586","ID1326","ID1326.02","OV04",3,3,74,2,2,30.2,38.5,"HGSC"
"587","ID0539","ID0539.01","OV04",1,88,61,2,8,29.4,NA,"Endometrioid"
"588","ID0981","ID0981.01","OV04",1,1,42,1,8,28.2,NA,"Endometrioid"
"589","ID0037","ID0037.03","OV04",8,1,47,1,8,27.8,NA,"Clear cell"
"590","ID0286","ID0286.03","OV04",2,3,51,888,8,24,NA,"Endometrioid"
"591","ID0115","ID0115.13","OV04",3,3,65,2,2,21.2,33.8,"HGSC"
"592","ID1695","ID1695.10","OV04",3,2,71,2,8,22.3,NA,"HGSC"
"593","ID0093","ID0093.02","OV04",1,1,62,2,8,28.3,NA,"Endometrioid"
"594","ID0062","ID0062.02","OV04",3,1,66,2,8,26.5,NA,"Endometrioid"
"595","ID1350","ID1350.01","OV04",3,3,53,1,2,26.2,50.5,"HGSC"
"596","ID1620","ID1620.02","OV04",3,2,53,1,8,24.6,NA,"HGSC"
"597","ID0682","ID0682.03","OV04",3,3,69,2,2,25.5,40.8,"HGSC"
"598","ID0632","ID0632.01","OV04",3,1,58,2,8,28.7,NA,"Clear cell"
"599","ID1201","ID1201.04","OV04",3,1,68,888,2,26.7,88.5,"Endometrioid"
"600","ID1644","ID1644.01","OV04",3,2,46,1,8,30.3,NA,"Other"
"601","ID0533","ID0533.02","OV04",1,1,68,2,8,21.8,NA,"Mucinous"
"602","ID0867","ID0867.02","OV04",1,1,60,2,8,24.1,NA,"Mucinous"
"603","ID0717","ID0717.02","OV04",3,3,64,888,1,18.5,163.2,"Mixed"
"604","ID1617","ID1617.01","OV04",3,3,64,2,1,28.4,173,"Mixed"
"605","ID1488","ID1488.01","OV04",3,4,66,2,2,18.2,96.5,"Mixed"
"606","ID0323","ID0323.02","OV04",1,1,55,2,2,56.6,74.4,"LGSC"
"607","ID0753","ID0753.04","OV04",1,1,67,2,1,32.6,178,"Endometrioid"
"608","ID1701","ID1701.07","OV04",8,3,50,1,1,24.2,158.3,"Endometrioid"
"609","ID1195","ID1195.02","OV04",2,1,58,1,1,37.3,156.5,"Mixed"
"610","ID1676","ID1676.02","OV04",3,1,46,1,1,25.8,157.8,"Mixed"
"611","ID0602","ID0602.01","OV04",3,1,67,2,1,26,147.7,"Mixed"
"612","ID1263","ID1263.02","OV04",3,3,67,2,2,16.7,22.2,"Mixed"
"613","ID1285","ID1285.03","OV04",3,1,51,1,2,12.2,19.8,"Mixed"
"614","ID0092","ID0092.01","OV04",3,3,55,2,2,29.8,36.4,"Mixed"
"615","ID1446","ID1446.03","OV04",3,3,56,2,2,13.9,42.5,"Mixed"
"616","ID0827","ID0827.01","OV04",2,1,62,2,2,19.5,104.9,"Mixed"
"617","ID1278","ID1278.01","OV04",3,3,66,2,8,61,NA,"HGSC"
"618","ID0850","ID0850.02","OV04",2,1,59,2,8,61.9,NA,"Clear cell"
"619","ID1423","ID1423.02","OV04",2,3,58,2,8,61.1,NA,"Endometrioid"
"620","ID1590","ID1590.03","OV04",1,2,53,2,8,58.2,NA,"Endometrioid"
"621","ID0623","ID0623.04","OV04",3,88,52,2,8,59.1,NA,"HGSC"
"622","ID1886","ID1886.01","OV04",3,3,50,1,2,58.5,68.2,"HGSC"
"623","ID0522","ID0522.03","OV04",3,1,49,1,8,56,NA,"Clear cell"
"624","ID0007","ID0007.02","OV04",2,3,54,2,8,49.3,NA,"Mixed"
"625","ID0501","ID0501.07","OV04",1,1,43,1,8,58.6,NA,"Endometrioid"
"626","ID1335","ID1335.01","OV04",1,2,54,1,8,59.1,NA,"Endometrioid"
"627","ID0580","ID0580.02","OV04",1,3,34,1,2,49.9,78.7,"HGSC"
"628","ID1359","ID1359.02","OV04",1,2,53,1,8,45.6,NA,"Endometrioid"
"629","ID0936","ID0936.02","OV04",1,1,63,2,8,48.2,NA,"Endometrioid"
"630","ID1874","ID1874.02","OV04",1,1,59,2,8,50.2,NA,"Endometrioid"
"631","ID0579","ID0579.02","OV04",3,3,48,1,8,39.8,NA,"Endometrioid"
"632","ID1004","ID1004.01","OV04",1,1,33,1,8,40.4,NA,"Endometrioid"
"633","ID1833","ID1833.02","OV04",1,1,45,1,8,47.5,NA,"Endometrioid"
"634","ID1580","ID1580.09","OV04",3,1,57,2,8,36.4,NA,"HGSC"
"635","ID1518","ID1518.12","OV04",3,3,42,1,2,41.1,53,"HGSC"
"636","ID0676","ID0676.04","OV04",1,2,60,2,2,28.9,29.6,"LGSC"
"637","ID1117","ID1117.01","OV04",2,1,58,2,1,19.4,117.7,"Mixed"
"638","ID0674","ID0674.04","OV04",3,1,55,2,1,31.7,135.7,"HGSC"
"639","ID1007","ID1007.01","OV04",8,1,47,1,1,22.8,120.8,"Mixed"
"640","ID0955","ID0955.09","OV04",1,1,58,2,1,20.4,116.4,"Mixed"
"641","ID1218","ID1218.12","OV04",3,1,65,2,1,16.5,115.8,"Endometrioid"
"642","ID0511","ID0511.05","OV04",3,88,49,1,1,26.6,107.6,"Mixed"
"643","ID0392","ID0392.11","OV04",3,88,59,2,1,34.2,123,"HGSC"
"644","ID1128","ID1128.07","OV04",3,88,69,2,1,32.4,121,"HGSC"
"645","ID1803","ID1803.04","OV04",2,88,49,1,1,31.4,119.3,"Clear cell"
"646","ID0588","ID0588.09","OV04",8,88,38,1,1,56.5,139.4,"Clear cell"
"647","ID1254","ID1254.08","OV04",3,88,49,1,1,50,127.4,"HGSC"
"648","ID1582","ID1582.08","OV04",2,88,69,888,1,49.1,130.9,"Mixed"
"649","ID0982","ID0982.12","OV04",2,1,67,2,2,27.9,50.9,"Endometrioid"
"650","ID0668","ID0668.18","OV04",2,1,68,2,1,28,102.4,"Mixed"
"651","ID1569","ID1569.03","OV04",3,3,52,2,1,24,94.5,"Mixed"
"652","ID0891","ID0891.05","OV04",2,1,30,1,1,24.1,96.8,"Mixed"
"653","ID0698","ID0698.02","OV04",8,1,51,1,2,25.5,28.4,"Clear cell"
"654","ID0279","ID0279.06","OV04",2,1,61,2,1,26.8,99,"Mixed"
"655","ID1855","ID1855.09","OV04",3,1,51,2,2,18.5,61.7,"Clear cell"
"656","ID1095","ID1095.02","OV04",3,4,46,1,2,29.4,79.7,"HGSC"
"657","ID1167","ID1167.09","OV04",3,2,48,1,2,30,84,"Mixed"
"658","ID0349","ID0349.02","OV04",3,3,41,888,2,29.1,60.3,"HGSC"
"659","ID0134","ID0134.01","OV04",2,1,67,2,1,26.2,91,"Endometrioid"
"660","ID0362","ID0362.08","OV04",3,1,64,2,2,25.4,38.9,"HGSC"
"661","ID0503","ID0503.25","OV04",3,4,69,2,2,23.5,34.2,"HGSC"
"662","ID0874","ID0874.05","OV04",1,1,59,2,1,24,87.6,"Mucinous"
"663","ID1030","ID1030.05","OV04",3,3,58,2,2,26.8,35.3,"HGSC"
"664","ID0822","ID0822.03","OV04",3,3,67,2,2,21.2,49.2,"HGSC"
"665","ID0905","ID0905.10","OV04",3,3,56,2,1,21.6,83.5,"HGSC"
"666","ID0060","ID0060.16","OV04",3,3,57,2,1,16.5,81.8,"HGSC"
"667","ID0357","ID0357.09","OV04",2,1,42,1,1,17.4,81.1,"Endometrioid"
"668","ID0176","ID0176.15","OV04",3,3,63,888,1,15.3,80.5,"HGSC"
"669","ID1046","ID1046.09","OV04",1,3,60,2,1,25.2,90,"HGSC"
"670","ID0255","ID0255.05","OV04",2,1,60,2,1,19.4,83,"Endometrioid"
"671","ID0992","ID0992.13","OV04",3,1,62,2,1,17.1,68,"Clear cell"
"672","ID0085","ID0085.10","OV04",2,1,51,1,1,14.9,80,"Endometrioid"
"673","ID0435","ID0435.12","OV04",3,2,62,2,2,13.1,58.1,"Endometrioid"
"674","ID0570","ID0570.09","OV04",3,2,60,2,1,14.9,80.2,"HGSC"
"675","ID0321","ID0321.05","OV04",1,3,42,1,1,28.1,88.4,"LGSC"
"676","ID0941","ID0941.07","OV04",1,1,59,2,1,14.1,77.1,"Endometrioid"
"677","ID1627","ID1627.01","OV04",3,3,67,2,1,29.7,90.7,"Mixed"
"678","ID1235","ID1235.09","OV04",2,3,47,1,2,16.9,40.1,"Mixed"
"679","ID0658","ID0658.10","OV04",8,3,59,2,2,19.6,55.1,"Mixed"
"680","ID1420","ID1420.12","OV04",3,3,49,1,2,29.4,67.9,"HGSC"
"681","ID1879","ID1879.17","OV04",3,3,69,2,1,20.1,78,"HGSC"
"682","ID0723","ID0723.01","OV04",8,3,61,888,1,25.4,77.4,"Clear cell"
"683","ID0428","ID0428.21","OV04",3,1,62,2,1,29.9,86,"HGSC"
"684","ID1047","ID1047.16","OV04",3,3,48,2,2,22.2,39.3,"HGSC"
"685","ID1443","ID1443.17","OV04",3,3,60,2,2,23.4,37,"HGSC"
"686","ID1646","ID1646.03","OV04",3,3,37,1,2,21.8,58.4,"HGSC"
"687","ID1089","ID1089.13","OV04",3,88,61,2,2,22.3,52.3,"HGSC"
"688","ID1247","ID1247.03","OV04",3,88,48,1,1,26.4,75.9,"HGSC"
