"","patient.id","ocacid"
"1","ID1255","OCID5682"
"2","ID0707","OCID1987"
"3","ID1877","OCID4690"
"4","ID0788","OCID3200"
"5","ID1187","OCID0638"
"6","ID0053","OCID1612"
"7","ID0239","OCID3440"
"8","ID1708","OCID6110"
"9","ID0779","OCID6579"
"10","ID1608","OCID1492"
"11","ID0368","OCID4943"
"12","ID1595","OCID5983"
"13","ID1856","OCID5415"
"14","ID0598","OCID5663"
"15","ID0667","OCID1343"
"16","ID0693","OCID1981"
"17","ID0801","OCID6211"
"18","ID0002","OCID4973"
"19","ID0225","OCID0472"
"20","ID0754","OCID0587"
"21","ID0844","OCID4370"
"22","ID1193","OCID3902"
"23","ID0873","OCID2207"
"24","ID0075","OCID0624"
"25","ID0825","OCID6022"
"26","ID1714","OCID3772"
"27","ID1721","OCID4811"
"28","ID1116","OCID5550"
"29","ID1326","OCID5394"
"30","ID0115","OCID0656"
"31","ID1695","OCID4441"
"32","ID1350","OCID6785"
"33","ID1620","OCID1614"
"34","ID0682","OCID6504"
"35","ID1278","OCID3827"
"36","ID0623","OCID4217"
"37","ID1886","OCID5553"
"38","ID1580","OCID2400"
"39","ID1518","OCID2107"
"40","ID0674","OCID3232"
"41","ID0392","OCID1194"
"42","ID1128","OCID5284"
"43","ID1254","OCID6012"
"44","ID1095","OCID4545"
"45","ID0349","OCID0536"
"46","ID0362","OCID6573"
"47","ID0503","OCID5046"
"48","ID1030","OCID3301"
"49","ID0822","OCID3308"
"50","ID0905","OCID0861"
"51","ID0060","OCID4393"
"52","ID0176","OCID0262"
"53","ID0570","OCID5779"
"54","ID1420","OCID3311"
"55","ID1879","OCID3501"
"56","ID0428","OCID3115"
"57","ID1047","OCID1845"
"58","ID1443","OCID0379"
"59","ID1646","OCID2730"
"60","ID1089","OCID5505"
"61","ID1247","OCID0315"
"62","ID0272","OCID0514"
"63","ID1384","OCID2100"
"64","ID1791","OCID2043"
"65","ID0126","OCID4369"
"66","ID1805","OCID2995"
"67","ID1379","OCID3213"
"68","ID1419","OCID5249"
"69","ID0726","OCID0729"
"70","ID0761","OCID6250"
"71","ID0751","OCID4662"
"72","ID0480","OCID4729"
"73","ID0566","OCID5361"
"74","ID0467","OCID6609"
"75","ID0100","OCID3957"
"76","ID0625","OCID2423"
"77","ID0014","OCID0832"
"78","ID1083","OCID5750"
"79","ID0714","OCID2529"
"80","ID0337","OCID5809"
"81","ID0066","OCID2874"
"82","ID0770","OCID4735"
"83","ID0622","OCID2025"
"84","ID1323","OCID3279"
"85","ID1078","OCID4234"
"86","ID1554","OCID1865"
"87","ID1306","OCID6067"
"88","ID0130","OCID4591"
"89","ID0168","OCID0232"
"90","ID0474","OCID2063"
"91","ID0289","OCID5725"
"92","ID1258","OCID6746"
"93","ID1024","OCID6558"
"94","ID0513","OCID4498"
"95","ID1719","OCID1749"
"96","ID1398","OCID2571"
"97","ID0104","OCID0342"
"98","ID0341","OCID6882"
"99","ID0655","OCID0830"
"100","ID1499","OCID1534"
"101","ID1847","OCID6757"
"102","ID0794","OCID5017"
"103","ID0505","OCID3473"
"104","ID1678","OCID0376"
"105","ID1065","OCID1963"
"106","ID1246","OCID6466"
"107","ID0091","OCID5975"
"108","ID1768","OCID1144"
"109","ID1854","OCID0984"
"110","ID1152","OCID5195"
"111","ID0191","OCID4679"
"112","ID0018","OCID2337"
"113","ID1358","OCID3671"
"114","ID0627","OCID0837"
"115","ID0243","OCID3575"
"116","ID0529","OCID2425"
"117","ID1716","OCID6297"
"118","ID1883","OCID6582"
"119","ID0393","OCID0254"
"120","ID0581","OCID1049"
"121","ID1666","OCID5633"
"122","ID1111","OCID4235"
"123","ID1660","OCID5277"
"124","ID1472","OCID1232"
"125","ID1621","OCID4174"
"126","ID0787","OCID2326"
"127","ID0356","OCID2386"
"128","ID1082","OCID1088"
"129","ID1382","OCID3361"
"130","ID1511","OCID1884"
"131","ID1194","OCID1352"
"132","ID1909","OCID0862"
"133","ID0964","OCID3068"
"134","ID0944","OCID4409"
"135","ID0447","OCID2389"
"136","ID1822","OCID6007"
"137","ID1313","OCID4846"
"138","ID0250","OCID6220"
"139","ID0348","OCID1288"
"140","ID0961","OCID6294"
"141","ID0232","OCID4898"
"142","ID0264","OCID0593"
"143","ID0892","OCID6156"
"144","ID0994","OCID0272"
"145","ID1491","OCID0725"
"146","ID1072","OCID2965"
"147","ID0814","OCID1406"
"148","ID1888","OCID5319"
"149","ID1150","OCID5732"
"150","ID0484","OCID0195"
"151","ID1300","OCID0340"
"152","ID1105","OCID1116"
"153","ID1173","OCID0062"
"154","ID0630","OCID6498"
"155","ID1010","OCID4241"
"156","ID1526","OCID4344"
"157","ID0728","OCID5709"
"158","ID1907","OCID0647"
"159","ID1573","OCID2195"
"160","ID1440","OCID6796"
"161","ID1527","OCID5400"
"162","ID0750","OCID2920"
"163","ID0575","OCID4287"
"164","ID1725","OCID1420"
"165","ID1492","OCID2767"
"166","ID1591","OCID0474"
"167","ID0532","OCID0234"
"168","ID1624","OCID0108"
"169","ID1360","OCID0389"
"170","ID0186","OCID1801"
"171","ID1609","OCID6559"
"172","ID0587","OCID4626"
"173","ID0471","OCID1885"
"174","ID0558","OCID0923"
"175","ID1073","OCID1315"
"176","ID0701","OCID3445"
"177","ID0619","OCID6483"
"178","ID1051","OCID4101"
"179","ID1878","OCID3661"
"180","ID0214","OCID1465"
"181","ID0307","OCID0211"
"182","ID1896","OCID5030"
"183","ID0901","OCID1128"
"184","ID0072","OCID5739"
"185","ID1305","OCID1408"
"186","ID0473","OCID4899"
"187","ID0226","OCID2257"
"188","ID1311","OCID6358"
"189","ID0029","OCID3853"
"190","ID1890","OCID6009"
"191","ID0481","OCID4768"
"192","ID0336","OCID1953"
"193","ID1540","OCID5290"
"194","ID1354","OCID1257"
"195","ID1675","OCID0640"
"196","ID1346","OCID4971"
"197","ID1429","OCID2998"
"198","ID0626","OCID3659"
"199","ID0150","OCID5863"
"200","ID1603","OCID3768"
"201","ID0610","OCID5237"
"202","ID0766","OCID1503"
"203","ID0709","OCID5064"
"204","ID0376","OCID4270"
"205","ID1690","OCID6186"
"206","ID0776","OCID1076"
"207","ID0139","OCID4562"
"208","ID0950","OCID4722"
"209","ID0202","OCID5258"
"210","ID0911","OCID2258"
"211","ID1700","OCID1921"
"212","ID0260","OCID0091"
"213","ID1209","OCID0248"
"214","ID1875","OCID2660"
"215","ID1189","OCID5719"
"216","ID1897","OCID6111"
"217","ID0613","OCID0753"
"218","ID0353","OCID1684"
"219","ID1607","OCID5635"
"220","ID1052","OCID1489"
"221","ID1033","OCID0863"
"222","ID0757","OCID6682"
"223","ID1253","OCID0569"
"224","ID0372","OCID2439"
"225","ID0137","OCID3185"
"226","ID0755","OCID4775"
"227","ID1188","OCID4599"
"228","ID0158","OCID0089"
"229","ID0347","OCID4159"
"230","ID0606","OCID5458"
"231","ID0862","OCID0989"
"232","ID0654","OCID2072"
"233","ID0552","OCID6266"
"234","ID1076","OCID6215"
"235","ID0957","OCID3672"
"236","ID0252","OCID5896"
"237","ID0095","OCID5182"
"238","ID0945","OCID2853"
"239","ID0022","OCID0527"
"240","ID1407","OCID5157"
"241","ID1831","OCID0794"
"242","ID1166","OCID1062"
"243","ID1654","OCID1763"
"244","ID0119","OCID6273"
"245","ID1157","OCID5645"
"246","ID1287","OCID1099"
"247","ID0800","OCID2651"
"248","ID1100","OCID3406"
"249","ID0790","OCID4631"
"250","ID1523","OCID5536"
"251","ID0221","OCID5013"
"252","ID0492","OCID6731"
"253","ID0926","OCID4001"
"254","ID1726","OCID6107"
"255","ID1374","OCID5358"
"256","ID1022","OCID1725"
"257","ID1284","OCID3483"
"258","ID1787","OCID5675"
"259","ID1767","OCID6470"
"260","ID1290","OCID4537"
"261","ID1625","OCID5476"
"262","ID0704","OCID1115"
"263","ID0379","OCID4784"
"264","ID0171","OCID3826"
"265","ID1304","OCID0579"
"266","ID1121","OCID0181"
"267","ID1525","OCID2154"
"268","ID1069","OCID1796"
"269","ID1597","OCID3421"
"270","ID0860","OCID5802"
"271","ID0962","OCID5571"
"272","ID0270","OCID4184"
"273","ID1697","OCID4041"
"274","ID1103","OCID4081"
"275","ID1067","OCID0391"
"276","ID0951","OCID2255"
"277","ID0833","OCID1003"
"278","ID1297","OCID1863"
"279","ID1651","OCID3242"
"280","ID1842","OCID4417"
"281","ID1565","OCID2170"
"282","ID1356","OCID4623"
"283","ID0923","OCID5375"
"284","ID0939","OCID1666"
"285","ID0170","OCID2677"
"286","ID0942","OCID2679"
"287","ID0112","OCID0637"
"288","ID0003","OCID3812"
"289","ID1345","OCID1634"
"290","ID1604","OCID3452"
"291","ID0205","OCID1974"
"292","ID0333","OCID3002"
